<?xml version="1.0" encoding="UTF-8"?>
<svg width="32px" height="32px" viewBox="0 0 32 32" version="1.1" xmlns="http://www.w3.org/2000/svg" xmlns:xlink="http://www.w3.org/1999/xlink">
    <!-- Generator: Sketch 50 (54983) - http://www.bohemiancoding.com/sketch -->
    <title>tab/heading/icon/complete</title>
    <desc>Created with Sketch.</desc>
    <defs></defs>
    <g id="tab/heading/icon/complete" stroke="none" stroke-width="1" fill="none" fill-rule="evenodd" stroke-linecap="round">
        <g id="Group" transform="translate(6.000000, 8.000000)" stroke="#c02c2b" stroke-width="3">
            <path d="M6.06852618,14.2496556 L19.5678375,0.750344361" id="Line-2"></path>
            <path d="M0.334472656,8.23681641 L5.49931128,13.4993113" id="Line-2"></path>
        </g>
    </g>
</svg>
